{"status":"success","articles":[{"title":"After path of U.S. sprinter Kenny Bednarek led to Olympic silver, he searches for gold","description":"The path of sprinter Kenny Bednarek has been far from easy or conventional. Plenty of uphill climbs, too.","url":"https:\/\/www.cbc.ca\/sports\/olympics\/summer\/athletics\/kenny-bednarek-olympic-search-gold-medals-grand-slam-track-1.7501497","urlToImage":"https:\/\/i.cbc.ca\/1.7501532.1743715856!\/fileImage\/httpImage\/image.jpg_gen\/derivatives\/16x9_1180\/bednarek-kenny-240805-1180.jpg?im=Resize%3D620","publishedAt":"2025-04-03T21:32:48Z","source":"CBC News","category":"sports"},{"title":"Today's news and jokes","description":"We\u2019ve seen more bat innovation in 1 week than we have in the past 200 years of baseball https:\/\/t.co\/Bls4wnZ9rB\r\n\u2014 Nick Maraldo (@nickmaraldo) April 1, 2025 \n\n\n\n\nI gotta say the Yankees all having torpedo bats is giving that time Malfoy\u2019s dad bought the whole\u2026","url":"https:\/\/www.superpunch.net\/2025\/04\/todays-news-and-jokes_063479566.html","urlToImage":"https:\/\/via.placeholder.com\/400x300?text=No+Image","publishedAt":"2025-04-03T16:00:00Z","source":"Superpunch.net","category":"sports"},{"title":"18 And Ticking: The Booming IPL Business","description":"A cricket-crazy nation, a galaxy of sponsors and a marketing blitzkrieg - a potent combination that has kept the IPL soaring for 18 seasons.","url":"https:\/\/www.ndtv.com\/india-news\/18-and-ticking-the-booming-ipl-business-8077383","urlToImage":"https:\/\/c.ndtvimg.com\/2025-04\/fhbqrlco_virat-kohli-shah-rukh-khan-ipl-_625x300_03_April_25.jpeg?im=FeatureCrop,algorithm=dnn,width=1200,height=738","publishedAt":"2025-04-03T10:01:37Z","source":"NDTV News","category":"sports"},{"title":"Ex-Duke football murder suspect keeps returning home after arrests thanks to soft-on-crime judges: police rep","description":"A former Duke University football player who allegedly confessed to killing his former friend in Charlotte was arrested and released four separate times after her death in July 2024.","url":"https:\/\/www.foxnews.com\/us\/ex-duke-football-murder-suspect-keeps-returning-home-after-arrests-thanks-soft-crime-judges-police-rep","urlToImage":"https:\/\/static.foxnews.com\/foxnews.com\/content\/uploads\/2025\/04\/braxton.jpg","publishedAt":"2025-04-03T08:00:40Z","source":"Fox News","category":"sports"},{"title":"Nagaland CM announces initiatives to promote sports in state","description":"DIMAPUR, April 2: Nagaland Chief Minister Neiphiu Rio announced three major initiatives specially focused to nurture young local talent and promote the sporting landscape in the state. The initiatives are Nagaland Football Academy, The Chief Minister\u2019s Sports\u2026","url":"https:\/\/thehillstimes.in\/northeast\/nagaland-cm-announces-initiatives-to-promote-sports-in-state","urlToImage":"https:\/\/thehillstimes.in\/wp-content\/uploads\/2025\/04\/Nagaland-CM.jpg","publishedAt":"2025-04-03T00:50:00Z","source":"Thehillstimes.in","category":"sports"},{"title":"10 things to know about Doug Emhoff, Kamala Harris' husband","description":"After his time as second gentleman, Doug Emhoff returned to his legal career at a Big Law firm that struck a deal with Trump.","url":"https:\/\/www.businessinsider.com\/doug-emhoff-facts-second-gentleman-2020-12","urlToImage":"https:\/\/i.insider.com\/67ed793263d72727e198fcae?width=1024&format=jpeg","publishedAt":"2025-04-02T19:28:58Z","source":"Business Insider","category":"sports"},{"title":"Puyol To Lead Barca, Figo Named Real Madrid Captain For 'Legends Faceoff'","description":"Carles Puyol will lead the Barcelona Legends while Luis Figo has been announced as the captain of the Real Madrid Legends.","url":"https:\/\/sports.ndtv.com\/football\/carles-puyol-to-lead-barcelona-luis-figo-named-real-madrid-captain-for-legends-faceoff-in-mumbai-8067599","urlToImage":"https:\/\/i.ndtvimg.com\/i\/2017-05\/carles-puyol-afp_806x605_81494868236.jpg?im=FeatureCrop,algorithm=dnn,width=1200,height=738","publishedAt":"2025-04-02T07:41:14Z","source":"NDTV News","category":"sports"},{"title":"Forbes World\u2019s Billionaires List 2025: The Top 200","description":"Here are the wealthiest people on Forbes' annual rich list.","url":"https:\/\/www.forbes.com\/sites\/chasewithorn\/2025\/04\/01\/forbes-worlds-billionaires-list-2025-the-top-200\/","urlToImage":"https:\/\/imageio.forbes.com\/specials-images\/imageserve\/67eae5723ecdd0f99223055c\/0x0.jpg?format=jpg&height=900&width=1600&fit=bounds","publishedAt":"2025-04-01T10:00:02Z","source":"Forbes","category":"sports"},{"title":"The Actor Who Takes Your Breath Away In Paatal Lok 2","description":"'Life does not change in such a way that everything becomes easy. Struggle and hustle is there for everyone.\n'The difference is that people have started knowing me.'","url":"https:\/\/www.rediff.com\/movies\/report\/-the-actor-who-takes-your-breath-away-in-paatal-lok-2\/20250401.htm","urlToImage":"https:\/\/im.rediff.com\/movies\/2025\/mar\/28prateek1.jpg","publishedAt":"2025-04-01T06:34:01Z","source":"Rediff.com","category":"sports"},{"title":"IPL boost: India's sports sponsorship grows 6% to Rs 16,633 crore in 2024","description":"In 2024, India's sports sponsorship industry grew by 6% to '16,633 crore. Cricket led with an 85% market share, despite a slight decline. Digital media spending surged by 25%, while ground sponsorship dipped. The IPL's media rights and franchise valuations sa\u2026","url":"https:\/\/economictimes.indiatimes.com\/industry\/media\/entertainment\/media\/ipl-boost-indias-sports-sponsorship-grows-6-to-rs-16633-crore-in-2024\/articleshow\/119820056.cms","urlToImage":"https:\/\/img.etimg.com\/thumb\/msid-119820258,width-1200,height-630,imgsize-45216,overlay-economictimes\/articleshow.jpg","publishedAt":"2025-03-31T18:25:52Z","source":"The Times of India","category":"sports"},{"title":"World\u2019s newest cruise ship: Power-ranking Norwegian Aqua\u2019s 20 best features","description":"NCL's new Prima Class ship has set sail for the first time. What are the highlights?","url":"https:\/\/www.nzherald.co.nz\/travel\/worlds-newest-cruise-ship-power-ranking-norwegian-aquas-20-best-features\/53AZICOMDBFKRN5BH7YHM4YJFQ\/","urlToImage":"https:\/\/www.nzherald.co.nz\/resizer\/v2\/AWXPMLSPMZBDLLT6XJATYD7Y6U.jpg?auth=d103c458f9e62864605a7bf2af6833e1902eaa53be085b8c5fe45f90ab78e1a5&width=1200&height=675&quality=70&focal=991%2C537&smart=false","publishedAt":"2025-03-31T17:00:00Z","source":"New Zealand Herald","category":"sports"},{"title":"IWL: Bala, Murmu dominate as Sribhumi crush Nita FA","description":"Sribhumi FC secured their first win in three games with a 4-2 victory over Nita Football Academy in their Indian Women's League (IWL) match.","url":"https:\/\/www.rediff.com\/sports\/report\/iwl-bala-murmu-dominate-as-sribhumi-crush-nita-fa\/20250331.htm","urlToImage":"https:\/\/im.rediff.com\/sports\/2025\/mar\/31iwl-bala1.jpg","publishedAt":"2025-03-31T15:28:45Z","source":"Rediff.com","category":"sports"},{"title":"North Carolina woman allegedly murdered Green Beret husband, concealed his death: officials","description":"North Carolina authorities have arrested retired Green Beret Clinton Bonnell's wife, Shana Cloud, in connection with his January disappearance and murder.","url":"https:\/\/www.foxnews.com\/us\/north-carolina-woman-allegedly-murdered-green-beret-husband-concealed-his-death-officials","urlToImage":"https:\/\/static.foxnews.com\/foxnews.com\/content\/uploads\/2025\/03\/a9fa5c1c-cloud-bonnell.jpg","publishedAt":"2025-03-31T15:11:44Z","source":"Fox News","category":"sports"},{"title":"Satyajit Das: European Mirages \u2013 Why Crises and Decline Lies Ahead","description":"To alleviate its decline, Europe needs to restore good relations with Russia and China, which seems impossible absent regime changes","url":"https:\/\/www.nakedcapitalism.com\/2025\/03\/satyajit-das-european-mirages-why-crises-and-decline-lies-ahead.html","urlToImage":"https:\/\/www.nakedcapitalism.com\/wp-content\/uploads\/2025\/03\/Screen-Shot-2025-03-29-at-11.03.03-PM.png","publishedAt":"2025-03-31T10:50:50Z","source":"Nakedcapitalism.com","category":"sports"},{"title":"Igor Stimac Reveals Two Proposals For Betterment Of Indian Football","description":"Former India men's football team head coach Igor Stimac revealed two solutions he identified that had been discussed before his stint that would lead to the betterment and progress of the sport in the nation","url":"https:\/\/sports.ndtv.com\/football\/former-head-coach-igor-stimac-reveals-two-proposals-for-betterment-of-indian-football-8052277","urlToImage":"https:\/\/c.ndtvimg.com\/2024-01\/dljnsbs_igor-stimac-afp_625x300_12_January_24.jpg?im=FeatureCrop,algorithm=dnn,width=1200,height=738","publishedAt":"2025-03-31T09:48:18Z","source":"NDTV News","category":"sports"},{"title":"MEGHALAYA FC MAKES INDIA PROUD: Secures 3rd Place in Prestigious Indo-French Football Tournament","description":"Shillong(Meghalaya), Mar 30: In a historic achievement for Indian football, Meghalaya FC, comprising the U-17 team from Myngken Christian Higher Secondary School, Ri Bhoi District, has clinched an impressive 3rd place finish in the 2nd Edition of the Indo-Fre\u2026","url":"https:\/\/southasiaviews.com\/featured\/meghalaya-fc-makes-india-proud-secures-3rd-place-in-prestigious-indo-french-football-tournament\/","urlToImage":"https:\/\/southasiaviews.com\/wp-content\/uploads\/2025\/03\/football-team.jpg","publishedAt":"2025-03-30T17:56:45Z","source":"Southasiaviews.com","category":"sports"},{"title":"How The Esports World Cup Club Partner Program Is Supporting Orgs","description":"With $1 million payouts, the Esports World Cup Club Partner Program is offering a vital cash injection for 40 esports orgs around the world.","url":"https:\/\/www.forbes.com\/sites\/mikestubbs\/2025\/03\/30\/how-the-esports-world-cup-club-partner-program-is-supporting-orgs\/","urlToImage":"https:\/\/imageio.forbes.com\/specials-images\/imageserve\/675767728d493a946ec5c384\/0x0.jpg?format=jpg&height=900&width=1600&fit=bounds","publishedAt":"2025-03-30T13:42:44Z","source":"Forbes","category":"sports"},{"title":"With Lionel Messi watching, Novak Djokovic advances to Miami Open final","description":"Novak Djokovic advanced to the Miami Open final by defeating Grigor Dimitrov in straight sets while being watched by Lionel Messi. Djokovic, aiming for his seventh Miami Open title and 100th career win, praised Messi for his support and acknowledged the thril\u2026","url":"https:\/\/economictimes.indiatimes.com\/news\/sports\/with-lionel-messi-watching-novak-djokovic-advances-to-miami-open-final\/articleshow\/119722974.cms","urlToImage":"https:\/\/img.etimg.com\/thumb\/msid-119723000,width-1200,height-630,imgsize-60616,overlay-economictimes\/articleshow.jpg","publishedAt":"2025-03-29T18:40:34Z","source":"The Times of India","category":"sports"},{"title":"Centre Okays Odisha IAS Officer Sujata Karthikeyan's Request For Retirement","description":"The Centre has approved Odisha cadre Indian Administrative Service (IAS) officer Sujata R Karthikeyan&#039;s request to be relieved from service.","url":"https:\/\/www.ndtv.com\/india-news\/centre-approves-odisha-ias-officer-sujata-karthikeyan-request-for-voluntary-retirement-8041156","urlToImage":"https:\/\/c.ndtvimg.com\/2025-03\/521gdh5_sujata-r-karthikeyan_625x300_29_March_25.jpg?im=FeatureCrop,algorithm=dnn,width=1200,height=738","publishedAt":"2025-03-29T14:42:28Z","source":"NDTV News","category":"sports"}],"totalResults":180,"currentPage":1,"totalPages":9,"fromCache":false}