{"status":"success","articles":[{"title":"\u2018The end of the American century\u2019: Why Trump\u2019s tariffs will hurt the US more than the EU","description":"Trump\u2019s protectionist policies and general volatility could transform the nature of the EU-US relationship, accelerate multipolarisation, and end the hegemony of the US dollar, analysts said.","url":"https:\/\/www.euractiv.com\/section\/economy-jobs\/news\/the-end-of-the-american-century-why-trumps-tariffs-will-hurt-the-us-more-than-the-eu\/","urlToImage":"https:\/\/www.euractiv.com\/wp-content\/uploads\/sites\/2\/2025\/04\/GettyImages-2203479920-3.jpg","publishedAt":"2025-04-04T04:45:08Z","source":"EURACTIV","category":"weather"},{"title":"China\u2019s response to new U.S. tariffs will likely focus more on stimulus, building trade ties","description":"China's reaction to new U.S. tariffs will likely focus on domestic stimulus and strengthening ties with trading partners, analysts said.","url":"https:\/\/www.cnbc.com\/2025\/04\/04\/chinas-response-to-us-tariffs-will-likely-focus-on-stimulus-trade.html","urlToImage":"https:\/\/image.cnbcfm.com\/api\/v1\/image\/108099162-17389347462025-02-07t101402z_1004445950_rc2jpcag41s3_rtrmadp_0_usa-trump-tariffs-china.jpeg?v=1738934905&w=1920&h=1080","publishedAt":"2025-04-04T03:25:00Z","source":"CNBC","category":"weather"},{"title":"RBI to cut rates three more times this year on tariff threat: Citi","description":"India's central bank is expected to cut rates three more times this year by 75 basis points, mainly due to the downturn in economic growth from U.S. import tariffs. Citibank economists forecast a total of 100 basis points in rate cuts for the year as inflatio\u2026","url":"https:\/\/economictimes.indiatimes.com\/news\/economy\/indicators\/rbi-to-cut-rates-three-more-times-this-year-on-tariff-threat-citi\/articleshow\/119963010.cms","urlToImage":"https:\/\/img.etimg.com\/thumb\/msid-119963098,width-1200,height-630,imgsize-90976,overlay-economictimes\/articleshow.jpg","publishedAt":"2025-04-04T02:49:45Z","source":"The Times of India","category":"weather"},{"title":"Stock Market Highlights 4 April 2025: Sensex, Nifty close sharply lower on US tariff announcement; metal index worst affected","description":"Sensex, Nifty, Share Prices: Equity markets plummeted on Friday with the benchmark indices shedding over 1 per cent as fears of a global trade war and recession concerns rattled investor sentiment following sweeping tariff announcements by US President Donald\u2026","url":"https:\/\/www.thehindubusinessline.com\/markets\/share-market-nifty-sensex-highlights-4-april-2025\/article69411137.ece","urlToImage":"https:\/\/bl-i.thgim.com\/public\/incoming\/y2q5ds\/article69411138.ece\/alternates\/LANDSCAPE_1200\/stock%20market.jpg","publishedAt":"2025-04-04T01:07:54Z","source":"BusinessLine","category":"weather"},{"title":"Trump tariffs impact supply chains Apple developed to reduce its China dependency","description":"Apple has warned that tariffs could hurt its business, prompt it to increase prices and potentially force it to stop offering certain products altogether.","url":"https:\/\/www.cnbc.com\/2025\/04\/03\/trump-tariffs-will-impact-apples-non-china-supply-chains.html","urlToImage":"https:\/\/image.cnbcfm.com\/api\/v1\/image\/108089211-1737394695749-gettyimages-2194374813-AFP_36UV4WB.jpeg?v=1743704945&w=1920&h=1080","publishedAt":"2025-04-03T19:41:14Z","source":"CNBC","category":"weather"},{"title":"China-linked group UNC5221 exploited Ivanti Connect Secure zero-day since mid-March","description":"Ivanti addressed a critical remote code execution flaw in Connect Secure, which has been exploited since at least mid-March 2025. Ivanti released security updates to address a critical Connect Secure remote code execution vulnerability tracked as\u00a0CVE-2025-224\u2026","url":"https:\/\/securityaffairs.com\/176162\/apt\/china-linked-group-unc5221-exploited-ivanti-connect-secure-zero-day-since-mid-march.html","urlToImage":"https:\/\/securityaffairs.com\/wp-content\/uploads\/2023\/07\/Ivanti-logo.png","publishedAt":"2025-04-03T19:37:57Z","source":"Securityaffairs.com","category":"weather"},{"title":"US tariff-driven inflation may hit Indian electronics exports, but smart supply chains offer edge","description":"US tariffs have led to an inflation spike affecting Indian electronics exports. With India facing lower tariffs than competitors like China and Vietnam, companies see an opportunity for growth, though US demand and potential retaliatory moves remain significa\u2026","url":"https:\/\/economictimes.indiatimes.com\/industry\/cons-products\/electronics\/us-tariff-driven-inflation-may-hit-indian-electronics-exports-but-smart-supply-chains-offer-edge\/articleshow\/119954310.cms","urlToImage":"https:\/\/img.etimg.com\/thumb\/msid-119954416,width-1200,height-630,imgsize-826041,overlay-economictimes\/articleshow.jpg","publishedAt":"2025-04-03T18:45:21Z","source":"The Times of India","category":"weather"},{"title":"US recession, inflation... collaterals?","description":"As 'Liberation Day' nears, countries trading with the US brace for new tariffs. The US announced tariffs, including 64% on China and 27% on India, starting April 5. India's exempted goods may soften the blow, and ongoing negotiations could lead to adjustments\u2026","url":"https:\/\/m.economictimes.com\/opinion\/et-editorial\/us-recession-inflation-collaterals\/articleshow\/119953238.cms","urlToImage":"https:\/\/img.etimg.com\/thumb\/msid-119953342,width-1200,height-630,imgsize-125224,overlay-economictimes\/articleshow.jpg","publishedAt":"2025-04-03T17:52:57Z","source":"Economictimes.com","category":"weather"},{"title":"[Latest] Global Indoor Plant Market Size\/Share Worth USD 32.78 Billion by 2034 at a 4.85% CAGR: Custom Market Insights (Analysis, Outlook, Leaders, Report, Trends, Forecast, Segmentation, Growth, Growth Rate, Value)","description":"[220+ Pages Latest Report] According to a market research study published by Custom Market Insights, the demand analysis of Global Indoor Plant Market size & share revenue was valued at approximately USD 20.41 Billion in 2024 and is expected to reach USD 21.4\u2026","url":"https:\/\/www.globenewswire.com\/news-release\/2025\/04\/03\/3055504\/0\/en\/Latest-Global-Indoor-Plant-Market-Size-Share-Worth-USD-32-78-Billion-by-2034-at-a-4-85-CAGR-Custom-Market-Insights-Analysis-Outlook-Leaders-Report-Trends-Forecast-Segmentation-Grow.html","urlToImage":"https:\/\/ml.globenewswire.com\/Resource\/Download\/74609d89-5437-4826-b7b8-31238ea2e65c","publishedAt":"2025-04-03T17:30:00Z","source":"GlobeNewswire","category":"weather"},{"title":"Global Trade Braces for Impact After Trump\u2019s Tariff Bombshell","description":"President\u00a0Donald Trump's sweeping tariffs on U.S. imports sparked threats of retaliation on Thursday, as companies and governments rushed to count the costs from an escalating\u00a0trade\u00a0war\u00a0that threatens to shake up global alliances.","url":"https:\/\/gcaptain.com\/global-trade-braces-for-impact-after-trumps-tariff-bombshell\/","urlToImage":"https:\/\/gcaptain.com\/wp-content\/uploads\/2022\/04\/port-of-los-angeles-march.jpeg","publishedAt":"2025-04-03T17:27:02Z","source":"gcaptain.com","category":"weather"},{"title":"Rain threatens Myanmar rescue effort as earthquake death toll exceeds 3,000","description":"As the number killed in the devastating earthquake continues to rise and rescue efforts continue, forecast rain threatens to further worsen a desperate situation in Myanmar.","url":"https:\/\/www.abc.net.au\/news\/2025-04-04\/myanmar-earthquake-kills-thousands-rain-forecast\/105135910","urlToImage":"https:\/\/live-production.wcms.abc-cdn.net.au\/62812e3d31c9922d55e81c4ae3f19089?impolicy=wcms_watermark_news&cropH=2693&cropW=4787&xPos=0&yPos=640&width=862&height=485&imformat=generic","publishedAt":"2025-04-03T17:17:58Z","source":"ABC News (AU)","category":"weather"},{"title":"Amazon's internal forecast suggests a $700 million financial gain from its AI shopping assistant Rufus","description":"Amazon's AI shopping assistant Rufus is projected to indirectly boost operating profits by $700 million this year, with plans for further expansion.","url":"https:\/\/www.businessinsider.com\/amazon-predicts-700-million-potential-gain-ai-assistant-rufus-2025-4","urlToImage":"https:\/\/i.insider.com\/67eeaaa4b8b41a9673fc8c61?width=1200&format=jpeg","publishedAt":"2025-04-03T17:06:47Z","source":"Business Insider","category":"weather"},{"title":"Economics & Investing For Preppers","description":"Here are the latest news items and commentary on current economics news, market trends, stocks, investing opportunities, and the precious metals markets. In this column, JWR also covers hedges, derivatives, and various obscura. This column emphasizes JWR\u2019s \u201ct\u2026","url":"https:\/\/survivalblog.com\/2025\/04\/04\/economics-investing-for-preppers-32\/","urlToImage":"https:\/\/survivalblog.com\/wp-content\/uploads\/2025\/04\/FinCen-Logo.jpg","publishedAt":"2025-04-03T16:51:10Z","source":"Survivalblog.com","category":"weather"},{"title":"Today\u2019s News in a Nutshell","description":"KATHMANDU: Khabarhub brings you a glimpse of major developments of the day in Nepal, including politics, business\/economy, sports, entertainment, and more. Joint efforts essential for a secure and prosperous future: PM Oli Prime Minister (PM) KP Sharma Oli, a\u2026","url":"https:\/\/english.khabarhub.com\/2025\/03\/454941\/","urlToImage":"https:\/\/english.khabarhub.com\/wp-content\/uploads\/2024\/05\/News-Nutshell.jpg","publishedAt":"2025-04-03T16:15:40Z","source":"Khabarhub.com","category":"weather"},{"title":"U.S. Stock Markets Plunge, Registering Shock At Trump Tariffs","description":"U.S. stock markets plummeted after the opening bell Thursday, as investors registered shock at President Donald Trump\u2019s sweeping retaliatory tariffs. The Dow Jones Industrial Average fell as many as 1,570 points, though in percentage terms the decline was a s\u2026","url":"http:\/\/deadline.com\/2025\/04\/stock-markets-plunge-trump-tariffs-shock-wall-street-1236358207\/","urlToImage":"https:\/\/deadline.com\/wp-content\/uploads\/2025\/04\/GettyImages-2207682220.jpg?w=1024","publishedAt":"2025-04-03T15:06:18Z","source":"Deadline","category":"weather"},{"title":"[Latest] Global Induced Pluripotent Stem Cell iPSC Market Size\/Share Worth USD 4.91 Billion by 2034 at a 10.25% CAGR: Custom Market Insights (Analysis, Outlook, Leaders, Report, Trends, Forecast, Segmentation, Growth, Growth Rate, Value)","description":"[220+ Pages Latest Report] According to a market research study published by Custom Market Insights, the demand analysis of Global Induced Pluripotent Stem Cells Market size & share revenue was valued at approximately USD 1.85 Billion in 2024 and is expected \u2026","url":"https:\/\/www.globenewswire.com\/news-release\/2025\/04\/03\/3055340\/0\/en\/Latest-Global-Induced-Pluripotent-Stem-Cell-iPSC-Market-Size-Share-Worth-USD-4-91-Billion-by-2034-at-a-10-25-CAGR-Custom-Market-Insights-Analysis-Outlook-Leaders-Report-Trends-Fore.html","urlToImage":"https:\/\/ml.globenewswire.com\/Resource\/Download\/74609d89-5437-4826-b7b8-31238ea2e65c","publishedAt":"2025-04-03T14:45:00Z","source":"GlobeNewswire","category":"weather"},{"title":"Apple leads Magnificent 7 stock drop amid Trump tariffs","description":"Apple (AAPL) shares were down by 8.4% at the market open on Thursday, leading the decline of Magnificent 7 stocks after President Donald Trump announced \u201creciprocal tariffs\u201d following the market close on Wednesday.Read more...","url":"https:\/\/qz.com\/apple-magnificent-7-stocks-fall-trump-reciprocal-tariff-1851774496","urlToImage":"https:\/\/i.kinja-img.com\/image\/upload\/c_fill,h_675,pg_1,q_80,w_1200\/6a5cdb4eb4c835e7b8e04d539275603f.jpg","publishedAt":"2025-04-03T14:35:00Z","source":"Quartz India","category":"weather"},{"title":"Europol-led operation shuts down CSAM platform Kidflix, leading to 79 arrests","description":"An international law enforcement operation shuts down Kidflix, a child sexual abuse material (CSAM) streaming platform with 1.8M users. An international operation, codenamed Operation Stream, against child sexual exploitation shuts down one of the largest str\u2026","url":"https:\/\/securityaffairs.com\/176154\/cyber-crime\/europol-led-op-shuts-down-csam-platform-kidflix.html","urlToImage":"https:\/\/securityaffairs.com\/wp-content\/uploads\/2025\/04\/image-4.png","publishedAt":"2025-04-03T14:22:23Z","source":"Securityaffairs.com","category":"weather"},{"title":"AI In Medical Imaging Market Size Projected to Hit USD 23.65 Billion by 2032, at a CAGR of 33.48% | SNS Insider","description":"According to Research by SNS Insider, The Global AI in Medical Imaging Market Growth is Driven by Rising Demand for Advanced Diagnostic Solutions, Increasing Healthcare Ai Adoption, And Technological Advancements. According to Research by SNS Insider, The Glo\u2026","url":"https:\/\/www.globenewswire.com\/news-release\/2025\/04\/03\/3055265\/0\/en\/AI-In-Medical-Imaging-Market-Size-Projected-to-Hit-USD-23-65-Billion-by-2032-at-a-CAGR-of-33-48-SNS-Insider.html","urlToImage":"https:\/\/ml.globenewswire.com\/Resource\/Download\/d6272c2e-d204-41b8-b545-a6e2e24f85c2","publishedAt":"2025-04-03T13:40:00Z","source":"GlobeNewswire","category":"weather"},{"title":"Stock market today: S&P 500, Nasdaq plunge, Dow drops 1,400 points as Trump's tariffs shock markets","description":"US stocks plunged after President Trump announced a baseline 10% tariff on all US trading partners, sending shockwaves through markets and the global trade...","url":"https:\/\/finance.yahoo.com\/news\/live\/stock-market-today-sp-500-nasdaq-plunge-dow-drops-1400-points-as-trumps-tariffs-shock-markets-133046714.html","urlToImage":"https:\/\/s.yimg.com\/ny\/api\/res\/1.2\/2oRSOMddM.VOYMB.AozsSA--\/YXBwaWQ9aGlnaGxhbmRlcjt3PTEyMDA7aD04MDA-\/https:\/\/s.yimg.com\/os\/creatr-uploaded-images\/2025-04\/bf842670-0f29-11f0-97ec-5500ed89b6cd","publishedAt":"2025-04-03T13:30:46Z","source":"Yahoo Entertainment","category":"weather"}],"totalResults":1231,"currentPage":1,"totalPages":62,"fromCache":false}