{"status":"success","articles":[{"title":"Apple\u2019s \u2018Make in India\u2019 dream meets tariff reality under Trump\u2019s trade salvo","description":"Trump\u2019s tariffs may leave Apple fans in India paying moreIndia, a rising hub for smartphone manufacturing, has been drawn into President Donald Trump\u2019s aggressive new tariff regime. With a 27% reciprocal tariff imposed on Indian exports to the US, major playe\u2026","url":"https:\/\/economictimes.indiatimes.com\/industry\/cons-products\/electronics\/trump-tariff-war-apples-make-in-india-dream-meets-tariff-reality-under-trumps-trade-salvo\/articleshow\/119961139.cms","urlToImage":"https:\/\/img.etimg.com\/thumb\/msid-119962768,width-1200,height-630,imgsize-152323,overlay-economictimes\/articleshow.jpg","publishedAt":"2025-04-04T05:08:30Z","source":"The Times of India","category":"general"},{"title":"Don\u2019t buy just because it\u2019s fallen: Samir Arora warns against catching falling knives","description":"Samir Arora of Helios Capital discusses market volatility, the impact of US tariffs, and effective investment strategies amid economic uncertainties. He emphasizes cautious optimism for India\u2019s market performance while highlighting potential correction in US \u2026","url":"https:\/\/economictimes.indiatimes.com\/markets\/expert-view\/dont-buy-just-because-its-fallen-samir-arora-warns-against-catching-falling-knives\/articleshow\/119966487.cms","urlToImage":"https:\/\/img.etimg.com\/thumb\/msid-119966531,width-1200,height-630,imgsize-29690,overlay-etmarkets\/articleshow.jpg","publishedAt":"2025-04-04T05:01:46Z","source":"The Times of India","category":"general"},{"title":"'I feel we will win the hockey World Cup next year'","description":"The Indian hockey team's consecutive bronze medals in the 2021 and 2024 Olympics have renewed national hopes. Veteran player Onkar Singh aspires for another World Cup win in 2026. Confident in the current team's potential, he believes they can replicate the 1\u2026","url":"https:\/\/timesofindia.indiatimes.com\/sports\/hockey\/top-stories\/i-feel-we-will-win-the-hockey-world-cup-next-year\/articleshow\/119966738.cms","urlToImage":"https:\/\/static.toiimg.com\/thumb\/msid-119966779,width-1070,height-580,imgsize-85854,resizemode-75,overlay-toi_sw,pt-32,y_pad-40\/photo.jpg","publishedAt":"2025-04-04T05:01:33Z","source":"The Times of India","category":"general"},{"title":"Sodexo First half Fiscal 2025 results","description":"At the Board of Directors meeting held on April 03, 2025, chaired by Sophie Bellon, the Board approved the consolidated financial statements for the First half Fiscal 2025 ended February 28, 2025.","url":"https:\/\/www.globenewswire.com\/news-release\/2025\/04\/04\/3055699\/0\/en\/Sodexo-First-half-Fiscal-2025-results.html","urlToImage":"https:\/\/ml-eu.globenewswire.com\/Resource\/Download\/41035b08-904d-4df8-8380-c60cba9de662","publishedAt":"2025-04-04T05:00:00Z","source":"GlobeNewswire","category":"general"},{"title":"Actor-director Manoj Kumar passes away at 87 after prolonged illness","description":"Renowned actor and filmmaker Manoj Kumar, popularly known as 'Bharat Kumar,\u2019 has passed away at the age of 87 after a prolonged illness.\r\n\r\nThe news","url":"https:\/\/www.fijivillage.com\/entertainment\/Actor-director-Manoj-Kumar-passes-away-at-87-after-prolonged-illness-fxr485\/","urlToImage":"https:\/\/www.fijivillage.com\/news_images\/119385900367ef5fc90ab15f00fbcd.jpg","publishedAt":"2025-04-04T04:59:55Z","source":"Fijivillage","category":"general"},{"title":"India Parliament Passes Controversial Muslim Property Law","description":"","url":"https:\/\/biztoc.com\/x\/b89fb34cc19fd451","urlToImage":"https:\/\/biztoc.com\/cdn\/b89fb34cc19fd451_s.webp","publishedAt":"2025-04-04T04:56:42Z","source":"Biztoc.com","category":"general"},{"title":"Pharma stocks slide up to 7% as Trump hints at unprecedented tariffs on sector","description":"Shares of Indian pharma companies, including Aurobindo Pharma, Laurus Labs, IPCA Labs, and Lupin, fell up to 7% after U.S. President Donald Trump hinted at imminent tariffs on pharmaceutical imports. Speaking aboard Air Force One, Trump said pharma would be t\u2026","url":"https:\/\/economictimes.indiatimes.com\/markets\/stocks\/news\/pharma-stocks-slide-up-to-7-as-trump-hints-at-unprecedented-tariffs-on-sector\/articleshow\/119966661.cms","urlToImage":"https:\/\/img.etimg.com\/thumb\/msid-119966641,width-1200,height-630,imgsize-9494,overlay-etmarkets\/articleshow.jpg","publishedAt":"2025-04-04T04:56:11Z","source":"The Times of India","category":"general"},{"title":"Stock market update: Stocks that hit 52-week lows on NSE","description":"Cipla,  ONGC,  Hindalco,  Dr. Reddys and  Sun Pharma were among the top losers on NSE.","url":"https:\/\/economictimes.indiatimes.com\/markets\/stocks\/stock-watch\/stock-market-update-stocks-that-hit-52-week-lows-on-nse\/articleshow\/119966573.cms","urlToImage":"https:\/\/img.etimg.com\/thumb\/msid-83769615,width-1200,height-630,imgsize-98874,overlay-etmarkets\/articleshow.jpg","publishedAt":"2025-04-04T04:54:34Z","source":"The Times of India","category":"general"},{"title":"Climate Targets At Risk Without Finance From Developed World: India","description":"Developing nations will struggle to meet climate targets without sufficient funding from developed countries and the success of this year&#039;s UN climate conference depends on whether the Global North fulfils its climate finance commitments, India has s","url":"https:\/\/www.ndtv.com\/world-news\/developing-countries-climate-targets-at-risk-without-finance-from-developed-world-india-8083617","urlToImage":"https:\/\/c.ndtvimg.com\/2025-01\/gp36uvuo_climate-change_625x300_10_January_25.jpg?im=FaceCrop,algorithm=dnn,width=1200,height=738","publishedAt":"2025-04-04T04:52:06Z","source":"NDTV News","category":"general"},{"title":"US markets plunge on Trump tariffs as Indian indices show resilience","description":"Sensex traded at 75,819.09, down 476.27 points and Nifty at 23,066.15, down 183.95 points at 9.45 am after opening at 76,160.09 and 23,190.40, respectively","url":"https:\/\/www.thehindubusinessline.com\/markets\/stock-markets\/us-markets-plunge-on-trump-tariffs-as-indian-indices-show-resilience\/article69411340.ece","urlToImage":"https:\/\/bl-i.thgim.com\/public\/incoming\/7fazqt\/article69411392.ece\/alternates\/LANDSCAPE_1200\/2025-03-19T073426Z_2098456575_RC2UADAB02MK_RTRMADP_3_INDIA-MARKETS-FOREIGN-INVESTORS.JPG","publishedAt":"2025-04-04T04:51:58Z","source":"BusinessLine","category":"general"},{"title":"Rupee rises 34 paise to 84.96 against US dollar in early trade","description":"The rupee appreciated 34 paise to 84.96 against the US dollar, supported by falling crude oil prices and the weakening of the American currency. Trump's tariffs have sparked fears of inflation and a potential recession, leading to the greenback's broad-based \u2026","url":"https:\/\/economictimes.indiatimes.com\/markets\/forex\/rupee-rises-34-paise-to-84-96-against-us-dollar-in-early-trade\/articleshow\/119966369.cms","urlToImage":"https:\/\/img.etimg.com\/thumb\/msid-119966389,width-1200,height-630,imgsize-148946,overlay-etmarkets\/articleshow.jpg","publishedAt":"2025-04-04T04:48:55Z","source":"The Times of India","category":"general"},{"title":"Marico Q4 revenue growth beats estimates; Morgan Stanley sets target price at \u20b9625","description":"Marico Limited reported high-teen consolidated revenue growth for the fourth quarter ended March 31, 2025. Morgan Stanley has given an Equal-weight call on Marico with a target price of \u20b9625 per share.","url":"https:\/\/www.thehindubusinessline.com\/markets\/stock-markets\/marico-q4-revenue-growth-beats-estimates-morgan-stanley-sets-target-price-at-625\/article69411354.ece","urlToImage":"https:\/\/bl-i.thgim.com\/public\/incoming\/mnbjlt\/article69406865.ece\/alternates\/LANDSCAPE_1200\/PO16_BS_Stock_growth.jpg","publishedAt":"2025-04-04T04:47:47Z","source":"BusinessLine","category":"general"},{"title":"India\u2019s Destination Weddings Fuel a New Tourist Economy","description":"","url":"https:\/\/biztoc.com\/x\/8d1ab2a5981b5b46","urlToImage":"https:\/\/biztoc.com\/cdn\/8d1ab2a5981b5b46_s.webp","publishedAt":"2025-04-04T04:45:56Z","source":"Biztoc.com","category":"general"},{"title":"Indian Small-Cap Stocks Buck the Global Selloff After Trump\u2019s Tariffs","description":"","url":"https:\/\/biztoc.com\/x\/70166b98ffb53782","urlToImage":"https:\/\/biztoc.com\/cdn\/70166b98ffb53782_s.webp","publishedAt":"2025-04-04T04:45:24Z","source":"Biztoc.com","category":"general"},{"title":"\u2018The end of the American century\u2019: Why Trump\u2019s tariffs will hurt the US more than the EU","description":"Trump\u2019s protectionist policies and general volatility could transform the nature of the EU-US relationship, accelerate multipolarisation, and end the hegemony of the US dollar, analysts said.","url":"https:\/\/www.euractiv.com\/section\/economy-jobs\/news\/the-end-of-the-american-century-why-trumps-tariffs-will-hurt-the-us-more-than-the-eu\/","urlToImage":"https:\/\/www.euractiv.com\/wp-content\/uploads\/sites\/2\/2025\/04\/GettyImages-2203479920-3.jpg","publishedAt":"2025-04-04T04:45:08Z","source":"EURACTIV","category":"general"},{"title":"'It's easy to criticise...': Zepto CEO defends India's internet startups after Goyal\u2019s\u00a0'fancy ice creams' jibe","description":"Commerce Minister Piyush Goyal urged entrepreneurs to reassess their value propositions, suggesting that too many startups were focused on food delivery and instant logistics with little long-term economic impact","url":"https:\/\/www.businesstoday.in\/latest\/trends\/story\/its-easy-to-criticise-zepto-ceo-defends-indias-internet-startups-after-goyals-fancy-ice-creams-jibe-aadit-palicha-470654-2025-04-04","urlToImage":"https:\/\/akm-img-a-in.tosshub.com\/businesstoday\/images\/story\/202504\/67ef6058c66c8-zepto-ceo-aadit-palicha-043636435-16x9.jpg","publishedAt":"2025-04-04T04:42:31Z","source":"Business Today","category":"general"},{"title":"ESPN\u2019s Karl Ravech Clowned For Insane Shohei Ohtani Take","description":"There\u2019s no doubt that Shohei Ohtani is the best all-around player in baseball today, and maybe ever. He is undoubtedly a global phenomenon everywhere that people like baseball. But, longtime ESPN personality Karl Ravech may have went totally overboard when ta\u2026","url":"https:\/\/brobible.com\/sports\/article\/espns-karl-ravech-clowned-for-insane-shohei-ohtani-take\/","urlToImage":"https:\/\/brobible.com\/wp-content\/uploads\/2025\/04\/ohtani1.jpg","publishedAt":"2025-04-04T04:42:01Z","source":"BroBible","category":"general"},{"title":"Indian and New Zealand navies involved in $181m drug bust in Indian Ocean","description":"The New Zealand-led naval task force in the Indian Ocean continues to seize hauls of illegal drugs with an Indian Navy frigate the latest to intercept smugglers, recovering more than 2.5 tonnes of heroin and hashish.","url":"https:\/\/www.globalsecurity.org\/military\/library\/news\/2025\/04\/mil-250403-nzdf01.htm","urlToImage":"https:\/\/via.placeholder.com\/400x300?text=No+Image","publishedAt":"2025-04-04T04:40:30Z","source":"Globalsecurity.org","category":"general"},{"title":"Southeast Asian Governments React to Punitive Trump Tariffs","description":"They are open to negotiations with Washington, but will also seek to diversify their export markets away from the U.S.","url":"https:\/\/thediplomat.com\/2025\/04\/southeast-asian-governments-react-to-punitive-trump-tariffs\/","urlToImage":"https:\/\/thediplomat.com\/wp-content\/uploads\/2025\/04\/sizes\/td-story-s-2\/thediplomat_2025-04-04-043925.jpeg","publishedAt":"2025-04-04T04:27:00Z","source":"The Diplomat","category":"general"},{"title":"'India's bright ideas being sold to foreign firms for just Rs 50-60 lakh: Piyush Goyal attacks startup ecosystem","description":"Indian Commerce Minister Piyush Goyal has urged startups to focus on innovation in deep-tech, robotics, and electric mobility instead of selling their ideas to foreign firms. He stressed the need for Indian investors and highlighted the drawbacks of current t\u2026","url":"https:\/\/economictimes.indiatimes.com\/news\/india\/indias-bright-ideas-being-sold-to-foreign-firms-for-just-rs-50-60-lakh-piyush-goyal-attacks-startup-ecosystem\/articleshow\/119964895.cms","urlToImage":"https:\/\/img.etimg.com\/thumb\/msid-119964987,width-1200,height-630,imgsize-58474,overlay-economictimes\/articleshow.jpg","publishedAt":"2025-04-04T04:25:32Z","source":"The Times of India","category":"general"}],"totalResults":13560,"currentPage":1,"totalPages":678,"fromCache":false}