{"status":"success","articles":[{"title":"When Manoj Kumar Broke No-Intimacy Rule","description":"Subhash K Jha remembers his conversations with movie legend Manoj Kumar, who passed into the ages on April 4, 2025.","url":"https:\/\/www.rediff.com\/movies\/column\/when-manoj-kumar-broke-no-intimacy-rule\/20250404.htm","urlToImage":"https:\/\/im.rediff.com\/movies\/2025\/apr\/04simi-manoj2.jpg","publishedAt":"2025-04-04T05:06:58Z","source":"Rediff.com","category":"entertainment"},{"title":"Superman Is Saved by His Dog Krypto and Caped Robots in New James Gunn Trailer","description":"Superman's dog Krypto returned for an extended sneak peek at the upcoming DC Studios film arriving on July 11.","url":"http:\/\/www.rollingstone.com\/tv-movies\/tv-movie-news\/superman-james-gunn-new-trailer-dog-krypto-1235310589\/","urlToImage":"https:\/\/www.rollingstone.com\/wp-content\/uploads\/2025\/04\/superman-trailer-dog-krypto.jpg?w=1600&h=900&crop=1","publishedAt":"2025-04-04T05:06:46Z","source":"Rolling Stone","category":"entertainment"},{"title":"Disney and Marvel at CinemaCon 2025: The Biggest Moments","description":"From The Fantastic Four: First Steps to Thunderbolts* to Avatar: Fire and Ash and much more, here are the biggest moments from Disney and Marvel's CinemaCon presentation.","url":"https:\/\/www.ign.com\/articles\/disney-and-marvel-at-cinemacon-2025-the-biggest-moments","urlToImage":"https:\/\/assets-prd.ignimgs.com\/2025\/04\/04\/mixcollage-04-apr-2025-12-47-am-2114-1743742063019.jpg?width=1280","publishedAt":"2025-04-04T05:00:51Z","source":"IGN","category":"entertainment"},{"title":"Sakura Totoro tea sets and tableware return to Japan along with the cherry blossoms\u3010Photos\u3011","description":"Whether you feel like a spot of tea or a nibble of sweets this sakura season, Totoro is right there with you. When cherry blossom season comes around in Japan, it\u2019s not just the trees that sakura return to. Sakura-themed desserts, art installations, and more \u2026","url":"https:\/\/soranews24.com\/2025\/04\/04\/sakura-totoro-tea-sets-and-tableware-return-to-japan-along-with-the-cherry-blossoms%e3%80%90photos%e3%80%91\/","urlToImage":"https:\/\/soranews24.com\/wp-content\/uploads\/sites\/3\/2025\/04\/ST-0.jpg?w=1000&h=525&crop=1","publishedAt":"2025-04-04T05:00:27Z","source":"SoraNews24","category":"entertainment"},{"title":"Manoj Kumar\u2019s son opens up on his father's recent health struggles: 'He was in pain due to illness'","description":"Veteran actor-filmmaker Manoj Kumar, known for his patriotic films, passed away at 87. Kumar, who battled multiple health issues, was admitted to Kokilaben Ambani Hospital for pneumonia. Prime Minister Modi paid tribute, highlighting Kumar's influence on Indi\u2026","url":"https:\/\/economictimes.indiatimes.com\/magazines\/panache\/manoj-kumar-death-his-son-kunal-opens-up-on-his-fathers-recent-health-struggles-he-was-in-pain-due-to-illness\/articleshow\/119966438.cms","urlToImage":"https:\/\/img.etimg.com\/thumb\/msid-119966687,width-1200,height-630,imgsize-60538,overlay-etpanache\/articleshow.jpg","publishedAt":"2025-04-04T05:00:12Z","source":"The Times of India","category":"entertainment"},{"title":"Justine McCarthy: Strip-search of protesters is a scandal of unadulterated hypocrisy","description":"Oonagh Peters says she was led to a cell by a woman garda, told to remove her jeans, pull down her knickers and lift up her bra","url":"https:\/\/www.irishtimes.com\/opinion\/2025\/04\/04\/justine-mccarthy-strip-search-of-protesters-is-a-scandal-of-unadulterated-hypocrisy\/","urlToImage":"https:\/\/www.irishtimes.com\/resizer\/v2\/KIDTK4VVFNBPXIEZY7UU6JM6MA.jpg?smart=true&auth=1083d2b8ac65aaaf83817c8f9a4ead80e0baca8072a06d0ffde6cca5f63564db&width=1200&height=630","publishedAt":"2025-04-04T05:00:01Z","source":"The Irish Times","category":"entertainment"},{"title":"Actor-director Manoj Kumar passes away at 87 after prolonged illness","description":"Renowned actor and filmmaker Manoj Kumar, popularly known as 'Bharat Kumar,\u2019 has passed away at the age of 87 after a prolonged illness.\r\n\r\nThe news","url":"https:\/\/www.fijivillage.com\/entertainment\/Actor-director-Manoj-Kumar-passes-away-at-87-after-prolonged-illness-fxr485\/","urlToImage":"https:\/\/www.fijivillage.com\/news_images\/119385900367ef5fc90ab15f00fbcd.jpg","publishedAt":"2025-04-04T04:59:55Z","source":"Fijivillage","category":"entertainment"},{"title":"Sony To Release \u2018Chainsaw Man \u2013 The Movie: Reze Arc\u2019 In U.S. Theaters","description":"The studio has set the film's U.S. debut for October 29, 2025.","url":"https:\/\/www.cartoonbrew.com\/distribution\/sony-to-release-chainsaw-man-the-movie-reze-arc-in-u-s-theaters-246665.html","urlToImage":"https:\/\/www.cartoonbrew.com\/wp-content\/uploads\/2025\/04\/chainsawman_rezearc.jpg","publishedAt":"2025-04-04T04:59:18Z","source":"Cartoon Brew","category":"entertainment"},{"title":"Three Levels of Sermon Introduction","description":"Though every sermon necessarily needs a beginning, it does not necessarily need a formal introduction. Though it has to begin somewhere, there is no rule that it must begin with some kind of story or illustration. A preacher can jump straight into his text if\u2026","url":"https:\/\/www.challies.com\/articles\/three-levels-of-sermon-introduction\/","urlToImage":"https:\/\/www.challies.com\/media\/2025\/04\/Short-Title-3.jpg","publishedAt":"2025-04-04T04:56:01Z","source":"Challies.com","category":"entertainment"},{"title":"Toddler caught on TikTok eating his grandfather\u2019s ashes","description":"\u2018He\u2019ll never lose 2 truths and a lie,\u2019 one person joked in the comments section","url":"https:\/\/www.the-independent.com\/life-style\/tiktok-toddler-grandfather-ashes-mother-viral-b2727235.html","urlToImage":"https:\/\/static.the-independent.com\/2025\/04\/03\/17\/00\/MixCollage-03-Apr-2025-01-22-PM-2489.jpeg?trim=0,0,0,0&width=1200&height=800&crop=1200:800","publishedAt":"2025-04-04T04:52:05Z","source":"The-independent.com","category":"entertainment"},{"title":"When Manoj Kumar Filed Defamation Charges Against Shah Rukh Khan","description":"Shah Rukh apologised for hurting the veteran actor&#039;s sentiment in 2007","url":"https:\/\/www.ndtv.com\/entertainment\/when-manoj-kumar-filed-defamation-charges-against-shah-rukh-khan-sought-rs-100-crore-compensation-8083576","urlToImage":"https:\/\/c.ndtvimg.com\/2025-04\/3hjv68e8_manoj-_625x300_04_April_25.jpg?im=FeatureCrop,algorithm=dnn,width=1200,height=738","publishedAt":"2025-04-04T04:49:47Z","source":"NDTV News","category":"entertainment"},{"title":"Manoj Kumar passes away: Kranti to Purab Aur Pacchim; top 10 films of \u2018Bharat Kumar\u2019","description":"Manoj Kumar passed away on April 4 at the age of 87. The actor was known for his patriotic films. Here\u2019s a look at Manoj Kumar\u2019s 10 best films, from Kranti to Roti Kapda Aur Makaan.","url":"https:\/\/economictimes.indiatimes.com\/news\/entertainment\/manoj-kumar-passes-away-kranti-to-purab-aur-pacchim-top-10-films-of-bharat-kumar\/articleshow\/119966132.cms","urlToImage":"https:\/\/img.etimg.com\/thumb\/msid-119966254,width-1200,height-630,imgsize-14784,overlay-economictimes\/articleshow.jpg","publishedAt":"2025-04-04T04:46:00Z","source":"The Times of India","category":"entertainment"},{"title":"\u2018A Minecraft Movie\u2019 Projected To Haul In Big Box Office Gold This Weekend","description":"Jack Black and Jason Momoa\u2019s \u201cA Minecraft Movie\" is expected open big this weekend at the box office. Find out how much the film is projected to make.","url":"https:\/\/www.forbes.com\/sites\/timlammers\/2025\/04\/04\/a-minecraft-movie-projected-to-haul-in-big-box-office-gold-this-weekend\/","urlToImage":"https:\/\/imageio.forbes.com\/specials-images\/imageserve\/67ef5be444380c02edbda3ea\/0x0.jpg?format=jpg&crop=4095,2304,x0,y0,safe&height=900&width=1600&fit=bounds","publishedAt":"2025-04-04T04:43:58Z","source":"Forbes","category":"entertainment"},{"title":"Tom Cruise paid tribute to Val Kilmer with a moment of silence during his speech at CinemaCon","description":"Jerry Bruckheimer, a producer on the sequel, said in 2022 that Tom Cruise was the \"driving force\" behind getting Val Kilmer to return for the movie.","url":"https:\/\/www.businessinsider.com\/tom-cruise-val-kilmer-tribute-top-gun-iceman-maverick-cinemacon-2025-4","urlToImage":"https:\/\/i.insider.com\/67ef3efbb8b41a9673fc9f9e?width=1200&format=jpeg","publishedAt":"2025-04-04T04:28:13Z","source":"Business Insider","category":"entertainment"},{"title":"The Dare Makes Some Indecent Proposals With \u2018LCA\u2019","description":"Lights. Camera. Action!","url":"https:\/\/uproxx.com\/indie\/the-dare-lca\/","urlToImage":"https:\/\/uproxx.com\/wp-content\/uploads\/2024\/06\/The-Dare-2024-Richard-Kern-grid.jpg?w=710","publishedAt":"2025-04-04T04:27:24Z","source":"UPROXX","category":"entertainment"},{"title":"8-Film Francis Ford Coppola Bundle (Digital 4K\/HD Movies): Apocalypse Now, The Conversation & More $15 (0 replies)","description":"Apple TV [apple.com] has 8 From the Heart of Francis Ford Coppola Collection (Digital 4K\/HD Movies) for $14.99.\n\nNote: These titles are not Movies Anywhere (MA) compatible.\n\nIncludes:Apocalypse Now Fi","url":"https:\/\/slickdeals.net\/f\/18227974-8-film-francis-ford-coppola-bundle-digital-4k-hd-movies-apocalypse-now-the-conversation-more-15","urlToImage":"https:\/\/slickdeals.net\/attachment\/1\/8\/6\/3\/2\/3\/2\/450x450\/17355571.thumb","publishedAt":"2025-04-04T04:23:22Z","source":"Slickdeals.net","category":"entertainment"},{"title":"8-Film Francis Ford Coppola Bundle (Digital 4K\/HD Movies): Apocalypse Now, The Conversation & More $15","description":"Apple TV [apple.com] has 8 From the Heart of Francis Ford Coppola Collection (Digital 4K\/HD Movies) for $14.99.\n\nNote: These titles are not Movies Anywhere (MA) compatible.\n\nIncludes:Apocalypse Now Fi","url":"https:\/\/slickdeals.net\/f\/18227974-8-film-francis-ford-coppola-bundle-digital-4k-hd-movies-apocalypse-now-the-conversation-more-15?utm_source=rss&utm_content=ht&utm_medium=RSS2","urlToImage":"https:\/\/slickdeals.net\/attachment\/1\/8\/6\/3\/2\/3\/2\/450x450\/17355571.thumb","publishedAt":"2025-04-04T04:23:22Z","source":"Slickdeals.net","category":"entertainment"},{"title":"Veteran actor-filmmaker Manoj Kumar dies at 87","description":"The industry veteran, whose films ruled the box office in the late 1960s and 1970s, had been ailing for a while and died of age related issues at the Kokilaben Ambani Hospital around 3.30AM","url":"https:\/\/www.thehindubusinessline.com\/news\/variety\/veteran-actor-filmmaker-manoj-kumar-dies-at-87\/article69411290.ece","urlToImage":"https:\/\/bl-i.thgim.com\/public\/incoming\/hwuyxt\/article69411321.ece\/alternates\/LANDSCAPE_1200\/PTI04_04_2025_000001B.jpg","publishedAt":"2025-04-04T04:17:34Z","source":"BusinessLine","category":"entertainment"}],"totalResults":26237,"currentPage":1,"totalPages":1312,"fromCache":false}