{"status":"success","articles":[{"title":"Apple\u2019s \u2018Make in India\u2019 dream meets tariff reality under Trump\u2019s trade salvo","description":"Trump\u2019s tariffs may leave Apple fans in India paying moreIndia, a rising hub for smartphone manufacturing, has been drawn into President Donald Trump\u2019s aggressive new tariff regime. With a 27% reciprocal tariff imposed on Indian exports to the US, major playe\u2026","url":"https:\/\/economictimes.indiatimes.com\/industry\/cons-products\/electronics\/trump-tariff-war-apples-make-in-india-dream-meets-tariff-reality-under-trumps-trade-salvo\/articleshow\/119961139.cms","urlToImage":"https:\/\/img.etimg.com\/thumb\/msid-119962768,width-1200,height-630,imgsize-152323,overlay-economictimes\/articleshow.jpg","publishedAt":"2025-04-04T05:08:30Z","source":"The Times of India","category":"politics"},{"title":"How PM Modi Helped Make BIMSTEC A Vibrant Regional Forum","description":"Prime Minister Narendra Modi will participate in the 6th Bay of Bengal Initiative for Multi-Sectoral Technical and Economic Cooperation (BIMSTEC) Summit in Bangkok, Thailand, on Friday.","url":"https:\/\/www.ndtv.com\/india-news\/how-india-revived-bimstec-and-made-it-internationally-relevant-8083639","urlToImage":"https:\/\/c.ndtvimg.com\/2025-04\/m5ri6gag_modi-pti-_625x300_04_April_25.jpeg","publishedAt":"2025-04-04T05:07:32Z","source":"NDTV News","category":"politics"},{"title":"Don\u2019t buy just because it\u2019s fallen: Samir Arora warns against catching falling knives","description":"Samir Arora of Helios Capital discusses market volatility, the impact of US tariffs, and effective investment strategies amid economic uncertainties. He emphasizes cautious optimism for India\u2019s market performance while highlighting potential correction in US \u2026","url":"https:\/\/economictimes.indiatimes.com\/markets\/expert-view\/dont-buy-just-because-its-fallen-samir-arora-warns-against-catching-falling-knives\/articleshow\/119966487.cms","urlToImage":"https:\/\/img.etimg.com\/thumb\/msid-119966531,width-1200,height-630,imgsize-29690,overlay-etmarkets\/articleshow.jpg","publishedAt":"2025-04-04T05:01:46Z","source":"The Times of India","category":"politics"},{"title":"Manoj Kumar\u2019s son opens up on his father's recent health struggles: 'He was in pain due to illness'","description":"Veteran actor-filmmaker Manoj Kumar, known for his patriotic films, passed away at 87. Kumar, who battled multiple health issues, was admitted to Kokilaben Ambani Hospital for pneumonia. Prime Minister Modi paid tribute, highlighting Kumar's influence on Indi\u2026","url":"https:\/\/economictimes.indiatimes.com\/magazines\/panache\/manoj-kumar-death-his-son-kunal-opens-up-on-his-fathers-recent-health-struggles-he-was-in-pain-due-to-illness\/articleshow\/119966438.cms","urlToImage":"https:\/\/img.etimg.com\/thumb\/msid-119966687,width-1200,height-630,imgsize-60538,overlay-etpanache\/articleshow.jpg","publishedAt":"2025-04-04T05:00:12Z","source":"The Times of India","category":"politics"},{"title":"Actor-director Manoj Kumar passes away at 87 after prolonged illness","description":"Renowned actor and filmmaker Manoj Kumar, popularly known as 'Bharat Kumar,\u2019 has passed away at the age of 87 after a prolonged illness.\r\n\r\nThe news","url":"https:\/\/www.fijivillage.com\/entertainment\/Actor-director-Manoj-Kumar-passes-away-at-87-after-prolonged-illness-fxr485\/","urlToImage":"https:\/\/www.fijivillage.com\/news_images\/119385900367ef5fc90ab15f00fbcd.jpg","publishedAt":"2025-04-04T04:59:55Z","source":"Fijivillage","category":"politics"},{"title":"India Deploys Relief Teams, Aid To Myanmar After Deadly Earthquake","description":"India&#039;s National Disaster Response Force (NDRF) is actively leading the efforts as part of Operation Bharma, with rescue and relief operations underway in Myanmar.","url":"https:\/\/www.ndtv.com\/india-news\/operation-brahma-india-deploys-relief-teams-aid-to-myanmar-after-deadly-earthquake-8083062","urlToImage":"https:\/\/c.ndtvimg.com\/2025-03\/ivhfa27_op-brahma-myanmar_625x300_29_March_25.jpeg?im=FeatureCrop,algorithm=dnn,width=1200,height=738","publishedAt":"2025-04-04T04:58:31Z","source":"NDTV News","category":"politics"},{"title":"Pharma stocks slide up to 7% as Trump hints at unprecedented tariffs on sector","description":"Shares of Indian pharma companies, including Aurobindo Pharma, Laurus Labs, IPCA Labs, and Lupin, fell up to 7% after U.S. President Donald Trump hinted at imminent tariffs on pharmaceutical imports. Speaking aboard Air Force One, Trump said pharma would be t\u2026","url":"https:\/\/economictimes.indiatimes.com\/markets\/stocks\/news\/pharma-stocks-slide-up-to-7-as-trump-hints-at-unprecedented-tariffs-on-sector\/articleshow\/119966661.cms","urlToImage":"https:\/\/img.etimg.com\/thumb\/msid-119966641,width-1200,height-630,imgsize-9494,overlay-etmarkets\/articleshow.jpg","publishedAt":"2025-04-04T04:56:11Z","source":"The Times of India","category":"politics"},{"title":"US markets plunge on Trump tariffs as Indian indices show resilience","description":"Sensex traded at 75,819.09, down 476.27 points and Nifty at 23,066.15, down 183.95 points at 9.45 am after opening at 76,160.09 and 23,190.40, respectively","url":"https:\/\/www.thehindubusinessline.com\/markets\/stock-markets\/us-markets-plunge-on-trump-tariffs-as-indian-indices-show-resilience\/article69411340.ece","urlToImage":"https:\/\/bl-i.thgim.com\/public\/incoming\/7fazqt\/article69411392.ece\/alternates\/LANDSCAPE_1200\/2025-03-19T073426Z_2098456575_RC2UADAB02MK_RTRMADP_3_INDIA-MARKETS-FOREIGN-INVESTORS.JPG","publishedAt":"2025-04-04T04:51:58Z","source":"BusinessLine","category":"politics"},{"title":"Coforge, Wipro and other IT stocks fall up to 2% amid Trump tariff jitters","description":"Indian IT services stocks fell sharply for the second day in a row, hit by new reciprocal U.S. tariffs. Major companies like TCS, Infosys, and HCL Tech experienced declines, with the Nifty IT index dropping 1.5%. Market sentiment remains weak amid expectation\u2026","url":"https:\/\/economictimes.indiatimes.com\/markets\/stocks\/news\/coforge-wipro-and-other-it-stocks-fall-up-to-2-amid-trump-tariff-jitters\/articleshow\/119966330.cms","urlToImage":"https:\/\/img.etimg.com\/thumb\/msid-119966318,width-1200,height-630,imgsize-94114,overlay-etmarkets\/articleshow.jpg","publishedAt":"2025-04-04T04:47:54Z","source":"The Times of India","category":"politics"},{"title":"Manoj Kumar passes away: Kranti to Purab Aur Pacchim; top 10 films of \u2018Bharat Kumar\u2019","description":"Manoj Kumar passed away on April 4 at the age of 87. The actor was known for his patriotic films. Here\u2019s a look at Manoj Kumar\u2019s 10 best films, from Kranti to Roti Kapda Aur Makaan.","url":"https:\/\/economictimes.indiatimes.com\/news\/entertainment\/manoj-kumar-passes-away-kranti-to-purab-aur-pacchim-top-10-films-of-bharat-kumar\/articleshow\/119966132.cms","urlToImage":"https:\/\/img.etimg.com\/thumb\/msid-119966254,width-1200,height-630,imgsize-14784,overlay-economictimes\/articleshow.jpg","publishedAt":"2025-04-04T04:46:00Z","source":"The Times of India","category":"politics"},{"title":"Indian Small-Cap Stocks Buck the Global Selloff After Trump\u2019s Tariffs","description":"","url":"https:\/\/biztoc.com\/x\/70166b98ffb53782","urlToImage":"https:\/\/biztoc.com\/cdn\/70166b98ffb53782_s.webp","publishedAt":"2025-04-04T04:45:24Z","source":"Biztoc.com","category":"politics"},{"title":"'It's easy to criticise...': Zepto CEO defends India's internet startups after Goyal\u2019s\u00a0'fancy ice creams' jibe","description":"Commerce Minister Piyush Goyal urged entrepreneurs to reassess their value propositions, suggesting that too many startups were focused on food delivery and instant logistics with little long-term economic impact","url":"https:\/\/www.businesstoday.in\/latest\/trends\/story\/its-easy-to-criticise-zepto-ceo-defends-indias-internet-startups-after-goyals-fancy-ice-creams-jibe-aadit-palicha-470654-2025-04-04","urlToImage":"https:\/\/akm-img-a-in.tosshub.com\/businesstoday\/images\/story\/202504\/67ef6058c66c8-zepto-ceo-aadit-palicha-043636435-16x9.jpg","publishedAt":"2025-04-04T04:42:31Z","source":"Business Today","category":"politics"},{"title":"India Ranks 36th In Global Readiness For Frontier Technologies: UN Report","description":"India ranks 36th out of 170 nations on a global index measuring a country&#039;s readiness for frontier technologies, improving its ranking from last year, according to a UN report.","url":"https:\/\/www.ndtv.com\/india-news\/india-ranks-36th-in-global-index-readiness-for-frontier-technologies-un-report-8083540","urlToImage":"https:\/\/c.ndtvimg.com\/2024-07\/befdi148_computer-generic_625x300_19_July_24.jpg?im=FeatureCrop,algorithm=dnn,width=1200,height=738","publishedAt":"2025-04-04T04:41:29Z","source":"NDTV News","category":"politics"},{"title":"India ranks 36 out of 170 nations on readiness for frontier technologies global index","description":"The index combines indicators for ICT deployment, skills, research and development (R&D) activity, industrial capacity, and access to finance","url":"https:\/\/www.thehindubusinessline.com\/info-tech\/india-ranks-36-out-of-170-nations-on-readiness-for-frontier-technologies-global-index\/article69411325.ece","urlToImage":"https:\/\/bl-i.thgim.com\/public\/incoming\/l7pnaa\/article69367528.ece\/alternates\/LANDSCAPE_1200\/IMG_AI__circuit_board_2_1_F9DIVC5V.jpg","publishedAt":"2025-04-04T04:41:26Z","source":"BusinessLine","category":"politics"},{"title":"'India's bright ideas being sold to foreign firms for just Rs 50-60 lakh: Piyush Goyal attacks startup ecosystem","description":"Indian Commerce Minister Piyush Goyal has urged startups to focus on innovation in deep-tech, robotics, and electric mobility instead of selling their ideas to foreign firms. He stressed the need for Indian investors and highlighted the drawbacks of current t\u2026","url":"https:\/\/economictimes.indiatimes.com\/news\/india\/indias-bright-ideas-being-sold-to-foreign-firms-for-just-rs-50-60-lakh-piyush-goyal-attacks-startup-ecosystem\/articleshow\/119964895.cms","urlToImage":"https:\/\/img.etimg.com\/thumb\/msid-119964987,width-1200,height-630,imgsize-58474,overlay-economictimes\/articleshow.jpg","publishedAt":"2025-04-04T04:25:32Z","source":"The Times of India","category":"politics"},{"title":"IT Stocks Live: TCS, Infosys, Wipro, Tech Mahindra, HCL Tech, Coforge shares continue downfall on second trading session after Liberation Day tariffs","description":"TCS, Infosys, Wipro, Tech Mahindra, HCL Tech, Coforge stocks today, Indian IT share price live updates: Shares of Coforge, Wipro, Persistent Systems, Infosys, Mphasis, LTIMindtree, HCL Tech, Tech Mahindra and TCS continued to trade in the negative territory. \u2026","url":"https:\/\/www.thehindubusinessline.com\/markets\/stock-markets\/indian-it-stocks-live-tcs-infosys-wipro-tech-mahindra-hcltech-cts-share-price-live-updates\/article69411332.ece","urlToImage":"https:\/\/bl-i.thgim.com\/public\/incoming\/nwj6qz\/article69411331.ece\/alternates\/LANDSCAPE_1200\/427504146.jpg","publishedAt":"2025-04-04T04:21:31Z","source":"BusinessLine","category":"politics"},{"title":"Trump\u2019s 26% tariff shock: Where India stands and what\u2019s at stake. Brokerages weigh in","description":"Donald Trump\u2019s sweeping tariff announcement has sent global markets into a tailspin. While China\u2019s Hang Seng dropped 2.5%, Japan\u2019s Nikkei slid 3%, and Nasdaq futures slumped by 3%, Indian markets showed resilience after the markets opened after the announceme\u2026","url":"https:\/\/m.economictimes.com\/markets\/stocks\/news\/trumps-26-tariff-shock-where-india-stands-and-whats-at-stake-brokerages-weigh-in\/trumps-tariff-blitz-shakes-global-markets\/slideshow\/119965622.cms","urlToImage":"https:\/\/img.etimg.com\/thumb\/msid-119965596,width-1070,height-580,overlay-etmarkets\/slideshow.jpg","publishedAt":"2025-04-04T04:19:33Z","source":"Economictimes.com","category":"politics"},{"title":"Veteran actor-filmmaker Manoj Kumar dies at 87","description":"The industry veteran, whose films ruled the box office in the late 1960s and 1970s, had been ailing for a while and died of age related issues at the Kokilaben Ambani Hospital around 3.30AM","url":"https:\/\/www.thehindubusinessline.com\/news\/variety\/veteran-actor-filmmaker-manoj-kumar-dies-at-87\/article69411290.ece","urlToImage":"https:\/\/bl-i.thgim.com\/public\/incoming\/hwuyxt\/article69411321.ece\/alternates\/LANDSCAPE_1200\/PTI04_04_2025_000001B.jpg","publishedAt":"2025-04-04T04:17:34Z","source":"BusinessLine","category":"politics"},{"title":"Why India still doesn\u2019t not have its own ChatGPT or DeepSeek? Zepto CEO, a Stanford dropout, explains","description":"Chinese startup DeepSeek's launch of its low-cost R1 large language model has sparked questions about India's lagging AI innovation. Zepto CEO Aadit Palicha attributes India's struggle to the absence of large, profitable internet companies, emphasizing the ne\u2026","url":"https:\/\/economictimes.indiatimes.com\/magazines\/panache\/why-india-still-doesnt-not-have-its-own-chatgpt-or-deepseek-zepto-ceo-a-stanford-dropout-explains\/articleshow\/119964556.cms","urlToImage":"https:\/\/img.etimg.com\/thumb\/msid-119965047,width-1200,height-630,imgsize-42930,overlay-etpanache\/articleshow.jpg","publishedAt":"2025-04-04T04:17:09Z","source":"The Times of India","category":"politics"},{"title":"Manoj Kumar Passes Away At 87","description":"The actor, affectionately known as 'Bharat Kumar' for his portrayal of patriotic roles in numerous films, breathed his last at 4:03 am at the Kokilaben Dhirubhai Ambani Hospital in Mumbai.","url":"https:\/\/www.rediff.com\/movies\/report\/manoj-kumar-passes-away-at-87\/20250404.htm","urlToImage":"https:\/\/im.rediff.com\/movies\/2025\/apr\/04manoj-kumar2.jpg","publishedAt":"2025-04-04T04:10:45Z","source":"Rediff.com","category":"politics"}],"totalResults":7806,"currentPage":1,"totalPages":391,"fromCache":false}